
protocol for measurement on 9 vars

2*2*2*2*2*2*2*2*2
1   121.479

1*4*2*2*2*2*2*2*2
1   97.869

1*4*1*4*2*2*2*2*2
1   52.762

1*4*1*4*1*4*2*2*2
1   31.283

1*4*1*4*1*4*1*4*2
1   18.284


16*16*2*1*1*1*1*1*1
1   27.523

256*2*1*1*1*1*1*1
1   12.911




