
Cycle of n states, 256 parametrizations

4   0.13
4   0.162
4   0.166

5   0.11
5   0.099
5   0.096

6   0.206
6   0.189
6   0.229

7   0.391
7   0.336
7   0.443

8   0.817
8   0.671
8   0.805

9   1.508
9   1.433
9   1.432

10  2.642
10  2.753
10  2.772

11  5.581
11  6.187
11  5.764

12  11.941
12  10.728
12  10.015

13  21.787
13  20.773
13  21.525

14  48.092
14  43.453
14  43.970

15  95.617
15  92.242
15  91.635

16  198.78
16  191.28
16  207.857

17  353.017
17  340.229
17  319.94

18  759.493
18  795.217
