

orlando this measures number of threads
in the budding yeasts


1   35.126
1   35.132
1   35.629
1   35.607

2   18.593
2   18.6
2   18.607

3   12.883
3   12.746
3   12.89

4   9.943
4   9.88
4   9.903

5   8.214
5   8.157
5   8.161

6   7.008
6   6.952
6   7.099

7   6.263
7   6.126
7   6.133

8   5.603
8   5.583
8   5.566

9   5.172
9   5.193
9   5.141

10  4.845
10  4.828
10  4.849

11  4.586
11  4.512
11  4.497

12  4.331
12  4.289
12  4.234

13  4.112
13  3.985
13  4.018

14  3.916
14  3.802
14  3.85

15  3.794
15  3.649
15  3.687

16  3.616
16  3.466
16  3.468

17  3.515
17  3.374
17  3.342

18  3.398
18  3.259
18  3.248

19  3.283
19  3.125
19  3.135

20  3.202
20  3.051
20  3.022

21  3.139
21  2.979
21  2.989

22  3.12
22  2.919
22  2.896

23  3.064
23  2.794
23  2.762

24  3.051
24  2.753
24  2.717

25  2.923
25  2.683
25  2.659

26  2.954
26  2.653
26  2.684

27  2.854
27  2.578
27  2.608

28  2.919
28  2.517
28  2.498

29  2.874
29  2.544
29  2.453

30  2.776
30  2.497
30  2.46

31  2.691
31  2.508
31  2.479

32  2.694
32  2.44
32  2.457

